ds202_lab3
…
library(ggplot2)

data <- readxl::read_excel('/Users/Tyren/Desktop/DS_202/GSS.xls')

## Warning in read_fun(path = enc2native(normalizePath(path)), sheet_i = sheet, :
## Expecting numeric in A64817 / R64817C1: got 'Source'

## Warning in read_fun(path = enc2native(normalizePath(path)), sheet_i = sheet, : Expecting numeric in B64817 / R64817C2: got 'Data collection: General Social Survey
## Case Selection: all cases'

data

## # A tibble: 64,816 x 9
##    `Gss year for t `Respondent id  `Labor force st `Number of hour
##               <dbl>            <dbl> <chr>            <chr>           
##  1             1972                1 Working fulltime Not applicable  
##  2             1972                2 Retired          Not applicable  
##  3             1972                3 Working parttime Not applicable  
##  4             1972                4 Working fulltime Not applicable  
##  5             1972                5 Keeping house    Not applicable  
##  6             1972                6 Working fulltime Not applicable  
##  7             1972                7 Working fulltime Not applicable  
##  8             1972                8 Working fulltime Not applicable  
##  9             1972                9 Working parttime Not applicable  
## 10             1972               10 Working fulltime Not applicable  
## #  with 64,806 more rows, and 5 more variables: `Marital status` <chr>,
## #   `Highest year of school completed` <chr>, `Political party
## #   affiliation` <chr>, `General happiness` <chr>, `Ballot used for
## #   interview` <chr>
…
