ds202_lab3
…
## Warning: restored 'readxl'

## 
## The downloaded binary packages are in
##  C:\Users\rithw\AppData\Local\Temp\RtmpEFMp8u\downloaded_packages

data <- readxl::read_excel('/Users/rithw/Desktop/School work/DS 202/ds202_lab3/GSS.xls')

## Warning in read_fun(path = enc2native(normalizePath(path)), sheet_i = sheet, :
## Expecting numeric in A64817 / R64817C1: got 'Source'

data

## # A tibble: 64,816 x 10
##    `Gss year for t~ `General happin~ `Political part~ `Respondents se~
##               <dbl> <chr>            <chr>            <chr>           
##  1             1972 Not too happy    Ind,near dem     Female          
##  2             1972 Not too happy    Not str democrat Male            
##  3             1972 Pretty happy     Independent      Female          
##  4             1972 Not too happy    Not str democrat Female          
##  5             1972 Pretty happy     Strong democrat  Female          
##  6             1972 Pretty happy     Ind,near dem     Male            
##  7             1972 Not too happy    Ind,near dem     Male            
##  8             1972 Not too happy    Ind,near dem     Male            
##  9             1972 Pretty happy     Strong democrat  Female          
## 10             1972 Pretty happy     Strong democrat  Female          
## # ... with 64,806 more rows, and 6 more variables: `Highest year of school
## #   completed` <chr>, `Marital status` <chr>, `Number of hours usually work a
## #   week` <chr>, `Labor force status` <chr>, `Respondent id number` <dbl>,
## #   `Ballot used for interview` <chr>
…
data %>% 
  select(`happiness`, `marital_status`) %>%
    group_by(`marital_status`) %>%
      count(`happiness`)

## # A tibble: 38 x 3
## # Groups:   marital_status [7]
##    marital_status happiness          n
##    <chr>          <chr>          <int>
##  1 Divorced       Don't know         3
##  2 Divorced       No answer         58
##  3 Divorced       Not applicable   688
##  4 Divorced       Not too happy   1450
##  5 Divorced       Pretty happy    4683
##  6 Divorced       Very happy      1497
##  7 Married        Don't know        12
##  8 Married        No answer        123
##  9 Married        Not applicable  2221
## 10 Married        Not too happy   2431
## # ... with 28 more rows
…
df <- data %>%
  select(`happiness`, `political_party`, `marital_status`) %>%
    group_by(`political_party`, `marital_status`) %>%
      count(`happiness`)
df

## # A tibble: 273 x 4
## # Groups:   political_party, marital_status [59]
##    political_party marital_status happiness          n
##    <chr>           <chr>          <chr>          <int>
##  1 Don't know      Married        Pretty happy       2
##  2 Don't know      Married        Very happy         4
##  3 Don't know      Never married  Not too happy      1
##  4 Don't know      Never married  Very happy         1
##  5 Don't know      Separated      Not too happy      1
##  6 Don't know      Widowed        Not too happy      1
##  7 Don't know      Widowed        Pretty happy       1
##  8 Ind,near dem    Divorced       No answer          3
##  9 Ind,near dem    Divorced       Not applicable    74
## 10 Ind,near dem    Divorced       Not too happy    200
## # ... with 263 more rows
…
